"SN","Scrip","Transaction Date","Credit Quantity","Debit Quantity","Balance After Transaction","History Description"
"1","GLICL","2021-01-13","1","-","113.0","CA-Bonus                  00005734   B-5.25%-074/75 CREDIT"
"2","GLICL","2021-01-03","5","-","112.0","CA-Bonus                  00005733 Cr Current Balance"
"3","PLI","2021-01-01","10","-","10.0","INITIAL PUBLIC OFFERING   00000189     PLIIPO_77/78 CREDIT"
"4","PCBL","2020-12-17","2","-","15.0","CA-Bonus                  00005328    B-16%-2075/76 CREDIT"
"5","TMDBL","2020-11-04","13","-","125.0","CA-Bonus                  00005564 Cr Current Balance"
"6","GLICL","2020-11-02","54","-","107.0","CA-Rights                 00005497     R-100%-75/76 CREDIT"
"7","RLI","2020-09-04","10","-","10.0","INITIAL PUBLIC OFFERING   00000173 RLI IPO - 077/78 CREDIT"
"8","NRN","2020-08-19","10","-","10.0","INITIAL PUBLIC OFFERING   00000172 0000000NRNIDLIPO CREDIT"
"9","AIL","2020-07-24","10","-","10.0","INITIAL PUBLIC OFFERING   00000166 AIL-IPO-2077/078 CREDIT"
"10","NICLBSL","2020-07-08","10","-","10.0","INITIAL PUBLIC OFFERING   00000162 IPO 2076/77      CREDIT"
"11","PCBL","2020-06-12","1","-","13.0","CA-Bonus                  00005326 Cr Current Balance"
"12","JBBL","2020-03-05","18","-","157.0","CA-Bonus                  00005350  B-12.75%-075/76 CREDIT"
"13","NCCB","2020-02-23","1","-","38.0","CA-Bonus                  00005415     B-15%-075/76 CREDIT"
"14","PRVU","2020-02-20","1","-","105.0","CA-Bonus                  00004971     B-16%-075-76 CREDIT"
"15","NCCB","2020-02-18","4","-","37.0","CA-Bonus                  00005417 Cr Current Balance"
"16","GBBL","2020-02-09","1","-","214.0","CA-Bonus                  00005042 B-16.15% -075/76 CREDIT"
"17","PRVU","2020-02-05","14","-","104.0","CA-Bonus                  00004972 Cr Current Balance"
"18","GBBL","2020-02-03","29","-","213.0","CA-Bonus                  00005041 Cr Current Balance"
"19","KSBBL","2020-01-29","1","-","52.0","CA-Bonus                  00004697   B-1.50%-074-75 CREDIT"
"20","KSBBL","2020-01-06","1","-","51.0","CA-Bonus                  00004697   B-1.50%-074-75 CREDIT"
"21","NCCB","2019-10-17","1","-","33.0","CA-Bonus                  00004785  B-15.89%-074/75 CREDIT"
"22","PCBL","2019-10-03","1","-","12.0","CA-Bonus                  00004656    B-16%-2074/75 CREDIT"
"23","NCCB","2019-10-01","4","-","32.0","CA-Bonus                  00004787 Cr Current Balance"
"24","GLICL","2019-09-30","1","-","53.0","CA-Rights                 00004809     R-50%-073/74 CREDIT"
"25","TNBL","2019-09-19","-","112","0.0","CA-Merger                 00004843 Db Current Balance"
"26","TMDBL","2019-09-19","112","-","112.0","CA-Merger                 00004843 Cr Current Balance"
"27","NLIC","2019-09-09","1","-","22.0","CA-Bonus                  00004616     B-25%-074/75 CREDIT"
"28","NLIC","2019-08-29","4","-","21.0","CA-Bonus                  00004614 Cr Current Balance"
"29","GLICL","2019-08-26","45","-","52.0","CA-Rights                 00004546      R-50%-73/74 CREDIT"
"30","GLICL","2019-07-15","7","-","7.0","CA-Bonus                  00004548 Cr Current Balance"
"31","GLICL","2019-06-27","-","88","0.0","ON-DR TD:120596 TX:142913 1301470000050915 SET:1211002019142"
"32","PRVU","2019-05-14","6","-","90.0","CA-Bonus                  00004474 Cr Current Balance"
"33","TNBL","2019-05-06","12","-","112.0","CA-Bonus                  00004171 Cr Current Balance"
"34","GBBL","2018-12-13","16","-","184.0","CA-Bonus                  00004065 Cr Current Balance"
"35","NCCB","2018-11-28","10","-","28.0","CA-Rights                 00003957     R-50%-074/75 CREDIT"
"36","JBBL","2018-11-19","1","-","139.0","CA-Bonus                  00002146  B-11.64%-072/73 CREDIT"
"37","KSBBL","2018-09-20","2","-","50.0","CA-Bonus                  00003926 Cr Current Balance"
"38","PCBL","2018-09-05","1","-","11.0","CA-Bonus                  00002249 B-17.25%-2072/73 CREDIT"
"39","KRBL","2018-08-06","1","-","1.0","CA-Bonus                  00002635                  CREDIT"
"40","NLIC","2018-06-03","5","-","17.0","CA-Bonus                  00003725 Cr Current Balance"
"41","PCBL","2018-04-19","2","-","10.0","CA-Bonus                  00003457 Cr Current Balance"
"42","TNBL","2018-04-17","9","-","100.0","CA-Bonus                  00003365 Cr Current Balance"
"43","JBBL","2018-04-09","12","-","138.0","CA-Bonus                  00003565 Cr Current Balance"
"44","GBBL","2018-04-03","1","-","168.0","CA-Bonus                  00003524                  CREDIT"
"45","GBBL","2018-03-29","21","-","167.0","CA-Bonus                  00003522 Cr Current Balance"
"46","KSBBL","2017-11-29","3","-","48.0","CA-Merger                 00003161                  CREDIT"
"47","KSBBL","2017-11-20","11","-","45.0","CA-Merger                 00003161                  CREDIT"
"48","GLICL","2017-11-05","6","-","88.0","CA-Bonus                  00002811 Cr Current Balance"
"49","NCCB","2017-08-09","9","-","18.0","ON-CR TD:855001 TX:711221 1301470000050915 SET:1211002017160"
"50","PRVU","2017-08-07","10","-","84.0","Demat 02691367 Close - Cr Confirmed Balance"
"51","PRVU","2017-08-07","3","-","74.0","Demat 02691365 Close - Cr Confirmed Balance"
"52","TNBL","2017-08-06","24","-","91.0","CA-Rights                 00002598                  CREDIT"
"53","GBBL","2017-08-02","1","-","146.0","CA-Rights                 00002579                  CREDIT"
"54","PCBL","2017-07-21","8","-","8.0","CA-Merger                 00002921 Cr Current Balance"
"55","CNDBL","2017-07-21","-","22","0.0","CA-Merger                 00002921 Db Current Balance"
"56","PRVU","2017-07-13","12","-","71.0","Demat 02230724 Close - Cr Confirmed Balance"
"57","GBBL","2017-07-11","60","-","145.0","CA-Rights                 00002579                  CREDIT"
"58","JBBL","2017-07-09","126","-","126.0","CA-Rights                 00002666                  CREDIT"
"59","NLIC","2017-06-30","2","-","12.0","CA-Bonus                  00002490 FPOBonusSh17AGM- CREDIT"
"60","KRBL","2017-06-18","-","12","0.0","ON-DR TD:573528 TX:148231 1301470000050915 SET:1211002017128"
"61","JBBL","2017-06-18","-","123","0.0","ON-DR TD:573522 TX:148219 1301470000050915 SET:1211002017128"
"62","HATH","2017-06-18","-","40","0.0","ON-DR TD:573519 TX:148213 1301470000050915 SET:1211002017128"
"63","KSBBL","2017-05-28","34","-","34.0","Demat 02224770 Close - Cr Confirmed Balance"
"64","NLIC","2017-04-25","10","-","10.0","INITIAL PUBLIC OFFERING   00000026                  CREDIT"
"65","JBBL","2017-04-24","11","-","123.0","CA-Bonus                  00002144 Cr Current Balance"
"66","CNDBL","2017-04-23","1","-","22.0","CA-Bonus                  00002602 Cr Current Balance"
"67","GBBL","2017-04-06","14","-","85.0","CA-Bonus                  00002297 Cr Current Balance"
"68","TNBL","2017-02-19","13","-","67.0","CA-Bonus                  00001589 Cr Current Balance"
"69","NCCB","2017-02-09","9","-","9.0","CA-Merger                 00002292 Cr Current Balance"
"70","SUPRME","2017-02-09","-","12","0.0","CA-Merger                 00002292 Db Current Balance"
"71","JBBL","2017-01-25","9","-","112.0","Demat 02224814 Close - Cr Confirmed Balance"
"72","HATH","2017-01-25","40","-","40.0","Demat 02224828 Close - Cr Confirmed Balance"
"73","CNDBL","2017-01-18","1","-","21.0","CA-Bonus                  00001276                  CREDIT"
"74","KRBL","2016-12-11","12","-","12.0","Demat 00918910 Close - Cr Confirmed Balance"
"75","SUPRME","2016-11-15","1","-","12.0","CA-Bonus                  00001238                  CREDIT"
"76","GLICL","2016-10-05","8","-","82.0","CA-Bonus                  00000631                  CREDIT"
"77","GBBL","2016-09-21","12","-","71.0","CA-Bonus                  00000472                  CREDIT"
"78","TNBL","2016-08-05","12","-","54.0","CA-Rights                 00000709                  CREDIT"
"79","CNDBL","2016-05-16","20","-","20.0","Demat 00950553 Close - Cr Confirmed Balance"
"80","SUPRME","2016-05-04","11","-","11.0","Demat 00950780 Close - Cr Confirmed Balance"
"81","PRVU","2016-05-04","48","-","59.0","Demat 00873384 Close - Cr Confirmed Balance"
"82","PRVU","2016-05-04","11","-","11.0","Demat 00873374 Close - Cr Confirmed Balance"
"83","TNBL","2016-05-02","6","-","42.0","CA-Bonus                  00000147                  CREDIT"
"84","GBBL","2016-04-26","59","-","59.0","Demat 00918904 Close - Cr Confirmed Balance"
"85","JBBL","2016-04-25","103","-","103.0","Demat 00918897 Close - Cr Confirmed Balance"
"86","TNBL","2016-04-19","36","-","36.0","Demat 00918938 Close - Cr Confirmed Balance"
"87","GLICL","2016-04-06","74","-","74.0","Demat 00848071 Close - Cr Confirmed Balance"
